*** Life<FredkinCell> 10x10 ***

Generation = 0, Population = 25.
-0000---0-
------0--0
-------0--
--0-0-0---
-----0-0--
---0-----0
0-0----0--
---0-0-0-0
--0-------
--0------0

Generation = 3, Population = 49.
-10-1-0---
0-2-0-1---
-1-120----
1011-0-010
10220-0-0-
-111-0-0--
----10----
01-0-----0
0--01-0-00
----11000-

Generation = 6, Population = 52.
2-0022----
115--24---
24-2-11-3-
20----032-
-0-2--0-3-
12412-----
010-20----
12--2-2-13
3---101-1-
-131-1--00

*** Life<FredkinCell> 7x10 ***

Generation = 0, Population = 26.
--0----0-0
--0--00-0-
-0-----0--
0-0----0--
-----00-0-
-00--00000
00-0--0---

Generation = 4, Population = 39.
21-1----10
1-4-0-402-
0-3--004--
0-010-1--0
1--13-114-
11411-0-22
----1-2-1-

Generation = 8, Population = 24.
-3-223----
-1----41--
---------1
----151-2-
-0--4-23--
---3--01-3
4--0-0--3-

Generation = 12, Population = 31.
35--440-2-
--6--3----
02--35-40-
050-3----0
--4281---2
-36--4----
--4-3-4-3-

*** Life<FredkinCell> 6x10 ***

Generation = 0, Population = 24.
--0-00-00-
-0--000--0
----0-0---
----00----
--0--0-0-0
0-0000---0

Generation = 5, Population = 27.
0-----2221
-211-33---
-010--3102
0--2-2-12-
2--------2
0--0----1-

Generation = 10, Population = 34.
2413123--4
--2114----
-13-203--3
232--2-4--
-23-3--0-2
34--2-221-

*** Life<FredkinCell> 6x10 ***

Generation = 0, Population = 16.
---00-----
-------00-
----0-----
----0-0-0-
0-0-----0-
-----00000

Generation = 2, Population = 27.
-012-10---
----00--21
0--12-1-0-
--1-200-21
--0---0---
---0--0022

*** Life<FredkinCell> 9x10 ***

Generation = 0, Population = 23.
--0------0
---0---0--
-0-00----0
---0-0-00-
----------
-0------0-
0-0-00----
---0---00-
---0----0-

Generation = 5, Population = 38.
3--1---403
--02--0--1
0-03-110--
01--1-----
-11-02---3
0----201--
---0-1-1-0
0-03--1-34
-----1----

Generation = 10, Population = 46.
6-222-273-
0--51223--
24-536-221
-3-34-3---
-1-3--10--
1--2----1-
--1-3-540-
-1-42---67
2--3--1--4

*** Life<FredkinCell> 6x5 ***

Generation = 0, Population = 6.
-0---
0--0-
0-0--
0----
-----
-----

Generation = 2, Population = 14.
0011-
-00--
-00-0
--10-
1-0--
0----

Generation = 4, Population = 13.
223--
1-2-1
102--
--3-0
-0---
---0-

Generation = 6, Population = 18.
--331
--2-1
1--10
---10
3011-
-1101

Generation = 8, Population = 13.
-3---
2-401
-----
--430
523--
1--2-

Generation = 10, Population = 16.
-3-4-
-2603
2-3--
20--2
--331
-1--3

Generation = 12, Population = 14.
3-4--
--825
-0---
2-5-4
-3---
3-225

Generation = 14, Population = 14.
34--2
-2--7
3052-
2----
-3-4-
-2-2-

Generation = 16, Population = 16.
5-6--
3-829
325--
4-634
5-4--
4----

Generation = 18, Population = 21.
-48-4
33+2+
--741
-2836
54--3
6--36

*** Life<FredkinCell> 10x10 ***

Generation = 0, Population = 29.
--0-----0-
0---000-0-
0---00----
---0----0-
-0-00-----
-00-------
---------0
----0--000
0----0-0--
0---0--00-

Generation = 4, Population = 36.
-1-1033-2-
--0-212-20
41--0-----
---------0
-23-------
11-----0--
2---3--1--
-----2---0
4-2--0-0--
20-11--11-

Generation = 8, Population = 40.
-----4-2-0
4-------4-
--012-12--
-------1-1
--4120-10-
3---0-11--
-102----14
3--003--3-
--430412--
--12------

Generation = 12, Population = 42.
-2-4--624-
--4-3-54--
-5---13--1
3---3--162
-28----3-2
--2-1----3
6312---41-
40-2------
-143---6--
2--3-1--4-

Generation = 16, Population = 49.
-2-54-8-61
--62---45-
8-----32-3
-22--4-2-6
43+2---442
6-242-----
6-33---62-
-433-----1
81---616--
2--74--44-

Generation = 20, Population = 50.
4--65-8-7-
---2--+--3
9522-45---
332---42-6
-7+-5126--
7-----512-
--57----6-
--53471-51
--6-3-2-15
-4398--6--

*** Life<FredkinCell> 10x8 ***

Generation = 0, Population = 25.
-00-0-0-
-0----0-
----0--0
---00--0
--------
--0-----
0-0-000-
-0--0---
-0-00---
--0-0-0-

Generation = 2, Population = 33.
10-0---1
-------0
-1--21-2
-------2
0-1--001
11-11--0
-1--0-21
--000---
12-22---
00------

Generation = 4, Population = 37.
-21-10-3
-----1--
-1-1----
11-110-2
--10--0-
112-1-1-
-3------
1222-111
1--221-0
-0--2---

Generation = 6, Population = 38.
3--0--13
01--03--
----3-03
--1-12--
11-0-1--
--231---
1-211132
14----1-
3--2--1-
0---40-1
